// Jest Snapshot v1, https://goo.gl/fbAQLP

exports[`Product component general rendering 1`] = `
<div
  style={
    Object {
      "boxSizing": "border-box",
      "flexBasis": "33.333333333333336%",
      "flexGrow": 0,
      "flexShrink": 0,
      "left": "auto",
      "marginLeft": "0%",
      "maxWidth": "33.333333333333336%",
      "minHeight": "1px",
      "paddingLeft": "15px",
      "paddingRight": "15px",
      "position": "relative",
      "right": "auto",
      "width": "100%",
    }
  }
>
  <p
    style={
      Object {
        "fontSize": 10,
      }
    }
  >
    ( ⚆ _ ⚆ )
  </p>
  <p>
    $5.66
  </p>
</div>
`;
